…
Then we can require all sorts of command outputs we want to show in our
R markdown file.
:::

::: {#exploring-the-dataset .section .level3}
### Exploring the Dataset

Let's first visualize some of the data atributes description:

``` r
print(data.atributes) 
```

    ## # A tibble: 105 x 6
    ##    ATTRIBUTE             CATEGORY DESCRIPTION              OPERATOR SOURCE YEAR 
    ##    <chr>                 <chr>    <chr>                    <chr>    <chr>  <chr>
    ##  1 id                    -        Cell identifier          -        -      -    
    ##  2 col                   -        Column to which the cel~ -        -      -    
    ##  3 row                   -        Row to which the cell b~ -        -      -    
    ##  4 geocodigo             -        Geocode of the municipa~ Mode     IBGE   2010 
    ##  5 bioma                 -        Biome code in which the~ Coverage IBGE   2015 
    ##  6 EXPLANATORY VARIABLES <NA>     <NA>                     <NA>     <NA>   <NA> 
    ##  7 veg10                 LAND USE Natural vegetation in 2~ Coverage IBGE   2015 
    ##  8 pastn10               LAND USE Natural pasture in 2010  Coverage IBGE   2015 
    ##  9 pastp10               LAND USE Pasture planted in 2010  Coverage IBGE   2015 
    ## 10 agric10               LAND USE Agriculture in 2010      Coverage IBGE   2015 
    ## # ... with 95 more rows
…
